{
    "@Type": "Restaurant",
    "url": "www.thelionsinn.com",
    "name": "The Lions Inn",
    "menu": [
      {
        "@Type": "MenuItem",
        "name": "Refreshing Spring Water",
        "description": "Restores 151 mana over 18 sec. Must remain seated while drinking.",
        "price": "0.25"
      },
      {
        "@Type": "MenuItem",
        "name": "Ice Cold Milk",
        "description": "Restores 437 mana over 21 sec. Must remain seated while drinking.",
        "price": "1.25"
      }
    ]
  }